papers,,,,,,,,,,,,,,,,,,,,,,,,,,,,,,,,,,
papers,,,,,,,,,,,,,,,,,,,,,,,,,,,,,,,,,,
Document Title,Authors,Author Affiliations,Publication Title,Date Added To Xplore,Publication Year,Volume,Issue,Start Page,End Page,Abstract,ISSN,ISBNs,DOI,Funding Information,PDF Link,Author Keywords,IEEE Terms,INSPEC Controlled Terms,INSPEC Non-Controlled Terms,Mesh_Terms,Article Citation Count,Patent Citation Count,Reference Count,License,Online Date,Issue Date,Meeting Date,Publisher,Document Identifier,include title,include abstract,exclude,accept contents,rq answers
Cybersecurity Attacks on Smart Home During Covid-19 Pandemic,R. O. Andrade; I. Ortiz-GarcĂ©s; M. Cazares,"Escuela PolitĂ©cnica Nacional,Faculty of Informatics,Quito,Ecuador; Universidad de las AmĂ©ricas,Quito,Ecuador; IDEIAGEOCA, Universidad PolitĂ©cnica Salesiana,Quito,Ecuador","2020 Fourth World Conference on Smart Trends in Systems, Security and Sustainability (WorldS4)",1-Oct-20,2020,,,398,404,"COVID-19 has generated that dynamics in the context of cybersecurity change significantly, due to the displacing of activities of organizations in the city to home in telework mode. The cybersecurity architecture at home does not have the same levels of security as in organizations, even more if the house has been developed under a smart infrastructure (smart home) scheme, the cybersecurity attack surface expands. This context could be one of the reasons why the number of attacks has increased significantly to more than 35%. VPN solutions are uses to protect telecommuting communications but security attacks exploit vulnerabilities of home-equipment and people, so VPN solutions could reduce their efficiency. Attackers have focused on social engineering attacks that use the concerns generated by the covid-19 pandemic to be more effective in their attacks. This study presents an analysis of cybersecurity attacks that have appeared during this pandemic and how it forces to change defense strategies in cybersecurity.",,978-1-7281-6823-4,10.1109/WorldS450073.2020.9210363,,https://ieeexplore.ieee.org/stamp/stamp.jsp?arnumber=9210363,smart city;social engineering;cybersecurity;phishing,Phishing;Electronic mail;Organizations;Teleworking;Urban areas,building management systems;computer network security;teleworking;virtual private networks,home-equipment;VPN solutions;social engineering attacks;covid-19 pandemic;cybersecurity attacks;smart home;cybersecurity change;organizations;telework mode;cybersecurity architecture;smart infrastructure scheme;cybersecurity attack surface expands;telecommuting communications but security attacks,,,,13,,1-Oct-20,,,IEEE,IEEE Conferences,yes,yes,,yes,"The paper “Cybersecurity Attacks on Smart Home During Covid-19 Pandemic” analysed cybersecurity attacks that occurred during this pandemic and how they force them to change cybersecurity defence strategies. This paper even shows not only organization but even there is an increase in cyber-attack on our smart homes. The paper attempts to  identify cybersecurity attacks that occurred during the Covid-19 pandemic or the change in current attacks. Understand the vulnerabilities and aspects of cybercrime, which increased security attacks during a pandemic. To conclude, analyse possible lines of action to reduce the effects of the attacks. The attacker has used different type of phishing technique to gather important information. In connection with the Covid-19 pandemic, attackers seek a confident impression of authenticity, like the World Health Organization (WHO). The attacker has used different types URL-Personalization which include the word “covid”. In this paper, they carried out a qualitative analysis of 146,000 records associated with malicious URLs. Though Covid19 or Coronavirus is the predominant word, attackers also use words linked to events that occur in the Covid 19 pandemic, such as people who are looking for return flights to the home or relationships. They have also mention google use to block more than 100 million phishing email every day. Using different types phishing technique attacker attack the smart homes as they are not that much secured as organization security is and people ends up in problem."
"An Approach to Cybersecurity, Cyberbullying in Social Networks and Information Security in Public Organizations during a Pandemic: Study case COVID-19 Ecuador",S. M. Toapanta Toapanta; J. Alfredo Espinoza Carpio; L. E. Mafla Gallegos,"Universidad PolitĂ©cnica Salesiana,Department of Computer Science,Guayaquil,Ecuador; Universidad PolitĂ©cnica Salesiana,Department of Computer Science,Guayaquil,Ecuador; Escuela PolitĂ©cnica Nacional,Faculty of Systems Engineering,Quito,Ecuador",2020 Congreso Internacional de InnovaciĂłn y Tendencias en IngenierĂ­a (CONIITI),2-Nov-20,2020,,,1,6,"The problems of cybersecurity, cyberbullying in social networks worldwide are persistent and increasingly evident and prejudicial to society regardless of age or sex; during the COVID-19 pandemic, the Ecuador study case can show negative and psychological impacts; another of the radical problems is the information security of public organizations for strategic decision making in natural or anthropogenic disasters in Ecuador, has caused serious problems to generate public policies with effectiveness and efficiency in health, education, basic services among others. The objective of the study is to identify cybersecurity problems, cyberbullying in social networks and present alternatives to improve information security in public organizations during a pandemic. It was used deductive method and exploratory research were to analyze the information. Turned out the early evaluation in the identification of cyberattack, cyberbullying and positive, negative and psychological impacts of the use of social networks during the pandemic and a prototype of a National System of Public Data Registration based on Blockchain to improve management of risks against natural or anthropogenic disasters in Ecuador. It was concluded that for making decisions effectively, efficiently at the strategic level during a pandemic such as COVID-19 or any other natural disaster, the most important thing in the first instance is to have information with integrity, to carry out adequate planning according to the reality of each country.",,978-1-7281-9466-0,10.1109/CONIITI51147.2020.9240375,,https://ieeexplore.ieee.org/stamp/stamp.jsp?arnumber=9240375,COVID-19 Ecuador;Cybersecurity;Psychological impact;Information Security;Social Networks;Ecuadorian Wuhan,COVID-19;Pandemics;Social networking (online);Information security;Psychology;Organizations;Public policy,computer crime;cryptography;data integrity;decision making;disasters;epidemics;Internet;psychology;social aspects of automation;social networking (online),information integrity;risk management;blockchain;National System of Public Data Registration;cyberattack identification;exploratory research;deductive method;cybersecurity;public policies;anthropogenic disasters;natural disasters;strategic decision making;radical problems;psychological impacts;Ecuador;COVID-19 pandemic;public organizations;information security;social networks;cyberbullying,,,,31,,2-Nov-20,,,IEEE,IEEE Conferences,yes,yes,This paper deals with cybersecurity during covid-19 and even it deals with organization and cyber-attacks but majorly it deals with cyberbullying during the covid-19 pandemic and in our inclusion criteria we have not included cyberbullying. Cyberbullying is a different and vast topic. That’s why it doesn’t match the inclusion criteria.,no,
Analysis of the attack vectors used by threat actors during the pandemic,V. Susukailo; I. Opirskyy; S. Vasylyshyn,"Lviv Polytechnic National University,Department of Information Security,Lviv,Ukraine; Lviv Polytechnic National University,Department of Information Security,Lviv,Ukraine; Lviv Polytechnic National University,Department of Information Security,Lviv,Ukraine",2020 IEEE 15th International Conference on Computer Sciences and Information Technologies (CSIT),21-Jan-21,2020,2,,261,264,"This article describes attacks methods, vectors and technics used by threat actors during pandemic situations in the world. Identifies common targets of threat actors and cyber-attack tactics. The article analyzes cybersecurity challenges and specifies possible solutions and improvements in cybersecurity. Defines cybersecurity controls, which should be taken against analyzed attack vectors.",,978-1-7281-7443-3,10.1109/CSIT49958.2020.9321897,,https://ieeexplore.ieee.org/stamp/stamp.jsp?arnumber=9321897,threat actor;attack vector;malware;analysis;incident response;business continuity;Cyber Kill Chain,Security;Pandemics;Organizations;Computer security;Malware;Information security;COVID-19,epidemics;security of data,threat actors;cyber-attack tactics;attack vectors;pandemic situations;cybersecurity,,,,6,,21-Jan-21,,,IEEE,IEEE Conferences,yes,yes,,yes,This paper deals with the method and technique used by the attacker to attack during the pandemic. This paper gives information about the social engineering attack and how the business function was interrupted during the pandemic. Paper enlightens us how the malware was used to affect people’s system using different techniques. As well as how social engineering technique was used to gain vital information such as fake online shopping etc.
Technological Solution Development During the COVID-19 Pandemic: a Case Study in an IoT Lab,R. L. PatrĂŁo; C. S. da Silva; G. P. C. P. da Luz; F. L. de Caldas Filho; F. L. L. de Mendonca; R. T. de Sousa,"Cybersecurity INCT, University of Brasilia,Electrical Engineering Dept.,Brasilia - DF,Brazil; Cybersecurity INCT, University of Brasilia,Electrical Engineering Dept.,Brasilia - DF,Brazil; Cybersecurity INCT, University of Brasilia,Electrical Engineering Dept.,Brasilia - DF,Brazil; Cybersecurity INCT, University of Brasilia,Electrical Engineering Dept.,Brasilia - DF,Brazil; Cybersecurity INCT, University of Brasilia,Electrical Engineering Dept.,Brasilia - DF,Brazil; Cybersecurity INCT, University of Brasilia,Electrical Engineering Dept.,Brasilia - DF,Brazil",2020 IEEE Global Conference on Artificial Intelligence and Internet of Things (GCAIoT),9-Feb-21,2020,,,1,6,"Major crisis in human history impose new challenges to all people affected by it. These great challenges usually represent a great opportunity for technological development, since technological solutions are a significant part of the effort to overcome crisis. The COVID-19 pandemic is no exception to this historical trend. We present in this work the development of a technological solution for one challenge imposed by the corona virus outbreak: disinfection of enclosed spaces. Hence, the objectives of this work were: 1 - To present some of the technical choices made to develop the sanitization solution using uvc light; 2 - To present a methodological framework to adapt R&D work to the needs of social/physical distance; 3 - To assess the productivity of the members of the UIoT laboratory during this remote work period. The solution development was carried out by a multidisciplinary team and, in order to evaluate the proposed methodology, a questionnaire was used to assess the team member's perception of productivity. Its results show an overall quality increase, and an individual quantity increase regarding the project's outputs. We concluded that the projects' results were better than what was expected at the beginning of the year.",,978-1-7281-8420-3,10.1109/GCAIoT51063.2020.9345864,CNPq - Brazilian National Research Council; CAPES - Brazilian Higher Education Personnel Improvement Coordination; ,https://ieeexplore.ieee.org/stamp/stamp.jsp?arnumber=9345864,,COVID-19;Productivity;Pandemics;Market research;Internet of Things;History;Research and development,biological effects of ultraviolet radiation;diseases;epidemics;health care;human factors;Internet of Things;organisational aspects;personnel;productivity;research and development;team working;teleworking,Universal Internet of Things;project outputs;team member perception;multidisciplinary team;productivity assessment;UIoT laboratory;physical distance;social distance;methodological framework;R&D work;UVC light;disinfection;human history;IoT lab;technological solution development;remote work period;sanitization solution;corona virus outbreak;historical trend;COVID-19 pandemic,,,,20,,9-Feb-21,,,IEEE,IEEE Conferences,no,no,The aims of this paper were 1 — to introduce some technical decisions taken to use UVC light to create the sanitising solution; 2 – Presenting a conceptual approach to adapt research and development work to social and physical distance needs; 3 - assessing the efficiency of representatives of the UIoT laboratory over this distant working period. And this all aim is not the part of inclusion criteria.,no,
Pandemic Parallels: What Can Cybersecurity Learn From COVID-19?,S. Furnell; J. Haney; M. Theofanos,"University of Nottingham, United Kingdom; National Institute of Standards and Technology, United States; National Institute of Standards and Technology",Computer,15-Mar-21,2021,54,3,68,72,"While the threats may appear to be vastly different, further investigation reveals that the cybersecurity community can learn much from the COVID-19 messaging response.",1558-0814,,10.1109/MC.2020.3046888,,https://ieeexplore.ieee.org/stamp/stamp.jsp?arnumber=9378909,,COVID-19;Pandemics;Computer security;Management;Cyberattack;Computer crime,,,,,,11,IEEE,15-Mar-21,,,IEEE,IEEE Magazines,no,no,This paper deals with what cybersecurity has learnt from this pandemic and how they can tackle it. This paper doesn’t fulfil the requirement of our research question as well as our inclusion criteria.,no,
Red-blue team exercises for cybersecurity training during a pandemic,C. DeCusatis; J. Bavaro; T. Cannistraci; B. Griffin; J. Jenkins; M. Ronan,"Marist College,Poughkeepsie,NY,USA; Marist College,Poughkeepsie,NY,USA; Marist College,Poughkeepsie,NY,USA; Marist College,Poughkeepsie,NY,USA; Marist College,Poughkeepsie,NY,USA; Marist College,Poughkeepsie,NY,USA",2021 IEEE 11th Annual Computing and Communication Workshop and Conference (CCWC),17-Mar-21,2021,,,1055,1060,"The COVID-19 pandemic has given rise to a remote workforce and education system which is vulnerable to a number of unique cybersecurity risks. There is a need for training cybersecurity professionals to deal with cyber threats during the pandemic and its aftermath. We present a series of red-blue team exercises related to pandemic threats, developed for undergraduate cybersecurity students. Implementation and experimental verification of macro virus attacks leveraging social engineering, building command-and-control services and conscripting devices into a botnet, and mitigating man-in-the middle attacks using a Raspberry Pi for website filtering will be discussed.",,978-1-6654-1490-6,10.1109/CCWC51732.2021.9376016,IBM; ,https://ieeexplore.ieee.org/stamp/stamp.jsp?arnumber=9376016,pandemic;training;macro;botnet;Raspberry Pi,Training;COVID-19;Pandemics;Filtering;Conferences;Computer security;Viruses (medical),,,,,,20,,17-Mar-21,,,IEEE,IEEE Conferences,no,no,This paper deals with the training of cybersecurity on how to deal with cyber-attacks during the pandemic. They present a series of different exercise for undergraduate student. That’s why it doesn’t match our inclusion criteria.,no,
A Census of Swedish Government Administrative Authority Employee Communications on Cybersecurity during the COVID-19 Pandemic,A. Andreasson; H. Artman; J. Brynielsson; U. Franke,"KTH Royal Institute of Technology,Stockholm,Sweden,SE-10044; FOI Swedish Defence Research Agency,Stockholm,Sweden,SE-16490; FOI Swedish Defence Research Agency,Stockholm,Sweden,SE-16490; RISE Research Institutes of Sweden,Kista,Sweden,SE-16429",2020 IEEE/ACM International Conference on Advances in Social Networks Analysis and Mining (ASONAM),24-Mar-21,2020,,,727,733,"Cybersecurity is the backbone of a successful digitalization of society, and cyber situation awareness is an essential aspect of managing it. The COVID-19 pandemic has sped up an already ongoing digitalization of Swedish government agencies, but the cybersecurity maturity level varies across agencies. In this study, we conduct a census of Swedish government administrative authority communications on cybersecurity to employees at the beginning of the COVID-19 pandemic. The census shows that the employee communications in the beginning of the pandemic to a greater extent have focused on first-order risks, such as video meetings and telecommuting, rather than on second-order risks, such as invoice fraud or social engineering. We also find that almost two thirds of the administrative authorities have not yet implemented, but only initiated or documented, their cybersecurity policies.",2473-991X,978-1-7281-1056-1,10.1109/ASONAM49781.2020.9381324,Swedish Armed Forces; ,https://ieeexplore.ieee.org/stamp/stamp.jsp?arnumber=9381324,Cybersecurity;COVID-19;government;situation awareness,COVID-19;Pandemics;Social networking (online);Phishing;Government;Teleworking;Computer security,,,,,,18,,24-Mar-21,,,IEEE,IEEE Conferences,yes,yes,This paper talks about cybersecurity during a pandemic for a specific region as well as it also talks about cybersecurity awareness which is one of the exclusion criteria. And it doesn’t even match the inclusion criteria as we have not included them to answer our research question for a specific region.,no,
Privacy in time of a pandemic,C. Pandit; H. Kothari; C. Neuman,"Viterbi School of Engineering, University of Southern California; Viterbi School of Engineering, University of Southern California; Viterbi School of Engineering, University of Southern California",2020 13th CMI Conference on Cybersecurity and Privacy (CMI) - Digital Transformation - Potentials and Challenges(51275),20-Jan-21,2020,,,1,6,"In December 2019, the world was struck by the unprecedented medical uncertainty that we now know as COVID-19, forcing many people into quarantine conditions. While the physiological impact of the pandemic is serious, this paper explores how privacy has been affected by COVID-19. In this paper, we explore the ways the ongoing pandemic has affected privacy ranging from the changes in privacy policy and regulation, through use of personal data for contact tracing and privacy in the technologies that have taken centre stage as we all work from home. The articles cited in this paper form an empirical basis of the observations we make. We use the information available to us to analyse the privacy concerns and draw conclusions.",,978-1-7281-9056-3,10.1109/CMI51275.2020.9322737,,https://ieeexplore.ieee.org/stamp/stamp.jsp?arnumber=9322737,Privacy;Pandemic;Personal Health Information (PHI);Privacy Policy;California Consumer Privacy Act (CCPA);General Data Protection Regulation (GDPR);Coronavirus;COVID-19;Contact Tracing,Pandemics;Companies;COVID-19;Data privacy;Privacy;Government;Regulation,data protection;diseases;epidemics;law;medical computing;medical information systems;microorganisms,quarantine conditions;physiological impact;COVID-19 pandemic;privacy policy;medical uncertainty;privacy regulation;personal data privacy;contact tracing;personal health information;general data protection regulation,,,,8,,20-Jan-21,,,IEEE,IEEE Conferences,no,no,,yes,"In this paper “Privacy in time of a pandemic” its highlighted about the privacy of data and security impacts that can be caused by the disclosure of privacy. Personally Identifiable Information (PII) is a type of data that, if compromised, can breach an individual's privacy. As a result, privacy is a term that focuses on how such data is used. It also pertains to the disclosure of PII to third parties. Countries all over the world create relevant laws to regulate the use and exchange of personal data in order to protect people's privacy."
A Multivocal Literature Review on Growing Social Engineering Based Cyber-Attacks/Threats During the COVID-19 Pandemic: Challenges and Prospective Solutions,M. Hijji; G. Alam,"Computer Science Department, University of Tabuk, Tabuk, Saudi Arabia; Information and Computer Science Department, King Fahd University of Petroleum and Minerals, Dhahran, Saudi Arabia",IEEE Access,12-Jan-21,2021,9,,7152,7169,"The novel coronavirus (COVID-19) pandemic has caused a considerable and long-lasting social and economic impact on the world. Along with other potential challenges across different domains, it has brought numerous cybersecurity challenges that must be tackled timely to protect victims and critical infrastructure. Social engineering-based cyber-attacks/threats are one of the major methods for creating turmoil, especially by targeting critical infrastructure, such as hospitals and healthcare services. Social engineering-based cyber-attacks are based on the use of psychological and systematic techniques to manipulate the target. The objective of this research study is to explore the state-of-the-art and state-of-the-practice social engineering-based techniques, attack methods, and platforms used for conducting such cybersecurity attacks and threats. We undertake a systematically directed Multivocal Literature Review (MLR) related to the recent upsurge in social engineering-based cyber-attacks/threats since the emergence of the COVID-19 pandemic. A total of 52 primary studies were selected from both formal and grey literature based on the established quality assessment criteria. As an outcome of this research study; we discovered that the major social engineering-based techniques used during the COVID-19 pandemic are phishing, scamming, spamming, smishing, and vishing, in combination with the most used socio-technical method: fake emails, websites, and mobile apps used as weapon platforms for conducting successful cyber-attacks. Three types of malicious software were frequently used for system and resource exploitation are; ransomware, trojans, and bots. We also emphasized the economic impact of cyber-attacks performed on different organizations and critical infrastructure in which hospitals and healthcare were on the top targeted infrastructures during the COVID-19 pandemic. Lastly, we identified the open challenges, general recommendations, and prospective solutions for future work from the researcher and practitioner communities by using the latest technology, such as artificial intelligence, blockchain, and big data analytics.",2169-3536,,10.1109/ACCESS.2020.3048839,"Industrial Innovation and Robotics Center, University of Tabuk; ",https://ieeexplore.ieee.org/stamp/stamp.jsp?arnumber=9312039,Multivocal literature review;social engineering;COVID-19;security and privacy;prospective solutions;cyber-attacks and threats,COVID-19;Pandemics;Organizations;Standards organizations;Computer hacking;Buildings;Social networking (online),computer crime;epidemics;unsolicited e-mail,COVID-19 pandemic;multivocal literature review;critical infrastructure;cybersecurity challenges;social engineering-based techniques;cybersecurity attacks;cyber threats;quality assessment criteria;malicious software,,,,107,CCBY,1-Jan-21,,,IEEE,IEEE Journals,yes,yes,,yes,"In this paper “A Multivocal Literature Review on Growing Social Engineering Based Cyber-Attacks/Threats During the COVID-19 Pandemic: Challenges and Prospective Solutions” they talked about cyber-attacks/threats based on social engineering are one of the most common ways to cause havoc, particularly when they threaten critical infrastructure like hospitals and healthcare services. Cyber-attacks focused on social engineering use psychological and systematic methods to exploit the target. Phishing, scamming, spamming, smishing, and vishing were discovered to be the most common social engineering–based techniques used during the COVID-19 pandemic, in combination with the most commonly used socio-technical method: fake emails, websites, and mobile apps used as weapon platforms for conducting effective cyber-attacks."
A Novel Approach to Predict the Real Time Sentimental Analysis by Naive Bayes & RNN Algorithm during the COVID Pandemic in UAE,A. Radaideh; F. Dweiri; M. Obaidat,"Collage of Engineering Engineering Management, University of Sharjah,Sharjah,UAE; Industrial Engineering & Engineering Management, University of Sharjah,Sharjah,UAE; Computing and Informatics Fellow of IEEE & Fellow of SCS, University of Sharjah,Sharjah,UAE","2020 International Conference on Communications, Computing, Cybersecurity, and Informatics (CCCI)",18-Nov-20,2020,,,1,5,"At present, each and every part of the globe are facing a COVID crisis, which is affecting an individual physically, mentally and on the other hand, it is affecting the nation economically. Also, the unemployment scenario will be at its peak in the upcoming years as reported by UNGA. To combat this scenario, all the country are working on fostering their fiber network and so the sectors apart from the manufacturing, will tend to work from their home and contribute to the economy. But there are many problems arising to implement this culture practically, since it affects the mindsets of the people who have to endure this transformation within a very short span. Hence, in this research work, it has been decided to focus on this current issue for which the usage of certain apps in UAE such as zoom, totok, botim for internet calling have been identified since this is the only way of connectivity with the outside world. To perform this analysis, the tweets from December to July have been collected by converting the image to text and analyzed using two algorithms such as Naive Bayes Classifier (NBC) and Recurrent Neural Networks (RNN). The sentimental analysis found that 630 tweets were positive and people in UAE feels secured, satisfied and internet calling is very useful for them in the prospect of work, education, etc. Only 48 tweets has negative impact because people feel little bit harder in sudden change of culture with in short period of time and 155 tweets has impact that both positive and negative were view and said to be natural. The study found that NB (84%) is more accurate, user friendly and takes less time than RNN (79%) to perform the analysis. Finally, the sentimental analysis reveals that people in UAE were accepting the new culture of internet calling and it is useful for them in the prospect of work and education.",,978-1-7281-7315-3,10.1109/CCCI49893.2020.9256587,,https://ieeexplore.ieee.org/stamp/stamp.jsp?arnumber=9256587,COVID19;Internet calling;Naive Bayes;Recurrent neural networks;Sentimental analysis,Data mining,epidemics;Internet;naive Bayes methods;pattern classification;real-time systems;recurrent neural nets;sentiment analysis;social networking (online),RNN algorithm;COVID pandemic;UAE;botim;Internet;tweets;naive Bayes classifier;recurrent neural networks;real time sentimental analysis,,,,15,,18-Nov-20,,,IEEE,IEEE Conferences,no,no,This paper deals with the Network issues and problems in UAE which is not in our inclusion criteria.,no,
Security vs. Flexibility: Striking a Balance in the Pandemic Era,V. Soni; D. Kukreja; D. K. Sharma,"Netaji Subhas University of Technology,Department of Information Technology,Delhi,India; Netaji Subhas University of Technology,Department of Information Technology,Delhi,India; Netaji Subhas University of Technology,Department of Information Technology,Delhi,India",2020 IEEE International Conference on Advanced Networks and Telecommunications Systems (ANTS),8-Feb-21,2020,,,1,5,"An organization's reputation is largely dependent on the work culture it provides to its employees. This is the reason, â€śflexibilityâ€ť is becoming an inherent part of an employer's support to its employees. Due to the unprecedented outbreak of novel corona virus (COVID-19), most companies have adopted flexibility of working from anywhere, for their employees. This digital transformation took place almost instantaneously. Hence, neither the employees, nor the employers were fully prepared for this situation. This definitely makes our lives convenient. But there exists another side of the coin which is concerned with the security issues pertaining to use of personal networks and devices. The home network devices have not been configured to be secure in line with the employer's requirements. That is the reason, attackers have a larger surface to get their hands dirty on. This paper exhaustively describes the holistic view of security issues and challenges faced by employees as well as employers in remote working paradigm. This paper emphasizes on the cybersecurity threats which have emerged in this pandemic era. The work presents the challenges faced by the employees as well as their employers in these tough times. Then this paper discusses the sudden rise in volumes of cyber-attacks between January 2020 to March 2020. The company's evaluation of critical threats in the on-site working paradigm versus the remote working paradigm have also been described. Next, it describes the risks which might occur in the near future of the COVID-19 impacted world. Finally, the paper proposes some of the ways in which employers can strike an efficient balance between flexibility for employees and security of their assets.",2153-1684,978-1-7281-9290-1,10.1109/ANTS50601.2020.9342779,,https://ieeexplore.ieee.org/stamp/stamp.jsp?arnumber=9342779,cybersecurity;pandemic;COVID-19;threats;attacks;flexibility;remote working,COVID-19;Home automation;Pandemics;Digital transformation;Conferences;Telecommunications;Computer crime,business data processing;computer network security;organisational aspects;security of data,pandemic era;work culture;employees;employer;security issues;personal networks;home network devices;remote working paradigm;on-site working paradigm,,,,19,,8-Feb-21,,,IEEE,IEEE Conferences,no,no,,yes,This paper deals with the security impacts caused to the employers working from home during covid pandemic and the security of the home network devices. The paper emphasizes on the cybersecurity threats which have been emerged in pandemic era. The paper discusses the sudden rise in volume of the cyber-attack from January 2020 to march 2020.
GPR and ANN based Prediction Models for COVID-19 Death Cases,A. Jarndal; S. Husain; O. Zaatar; T. A. Gumaei; A. Hamadeh,"University of Sharjah,Electrical Engineering Department,Sharjah,UAE; University of Sharjah,Electrical Engineering Department,Sharjah,UAE; University of Sharjah,Electrical Engineering Department,Sharjah,UAE; University of Sharjah,Electrical Engineering Department,Sharjah,UAE; University of Sharjah,Electrical Engineering Department,Sharjah,UAE","2020 International Conference on Communications, Computing, Cybersecurity, and Informatics (CCCI)",18-Nov-20,2020,,,1,5,"COVID-19 pandemic now affects the entire world and has a major effect on the global economy. A number of medical researchers are currently working in various fields to tackle this pandemic and its circumstances. This paper aims of developing a model that can estimate the number of deaths in the affected cases based on the documented number of older (above 65 years of age), diabetic and smoking cases. The Gaussian Process Regression (GPR) approach has been used to build the model and its performance was compared with a corresponding Artificial Neural Network (ANN) model. The model was applied to reliable data published by the World Health Organization (WHO) for different countries in North America, Europe and the Gulf region. The model provided impressive results with an excellent prediction of data from all the countries under investigation. The model may be useful in estimating the number of deaths due to any arbitrary number of inputs. It would also help to prepare effective measures to minimize the number of deaths.",,978-1-7281-7315-3,10.1109/CCCI49893.2020.9256564,,https://ieeexplore.ieee.org/stamp/stamp.jsp?arnumber=9256564,COVID-19;Prediction Model;Gaussian Process Regression,Predictive models;Data models;COVID-19;Biological system modeling;Europe;Training;Pandemics,diseases;epidemics;Gaussian processes;medical computing;neural nets;regression analysis,prediction models;COVID-19 death cases;COVID-19 pandemic;global economy;medical researchers;Gaussian process regression;GPR;artificial neural network;ANN;World Health Organization;pandemic;diabetic cases;smoking cases;North America;Europe;Gulf region,,,,12,,18-Nov-20,,,IEEE,IEEE Conferences,yes,yes,"The paper “GPR and ANN based Prediction Models for COVID-19 Death Cases” deals with the aim of creating a model that can predict the number of deaths in affected cases based on the number of older (over 65 years old), diabetic, and smoking cases that have been reported. The aim of the paper doesn’t match with our inclusion criteria so we cant include this paper.",no,
Fuzzy-based Cybersecurity Risk Analysis of the Human Factor from the Perspective of Classified Information Leakage,D. Vaczi; E. Toth-Laufer; T. Szadeczky,"Obuda Univerity,Doctoral School on Safety and Security Sciences,Budapest,Hungary; Institute of Mechatronics and Vehicle Engineering Banki Donat Faculty of Mechanical and Safety Engineering Obuda University,Budapest,Hungary; Institute of Instrumentation and Automation Kando Kalman Faculty of Electrical Engineering Obuda University,Budapest,Hungary",2020 IEEE 18th International Symposium on Intelligent Systems and Informatics (SISY),8-Oct-20,2020,,,113,118,"Nowadays, the digital transformation of organizations is not a challenge but a must-have. In the spring of 2020, practically the whole world worked from home offices. Now digital adaptation is the challenge for many people and orgaization. This situation poses challenges for the cybersecurity world. At the time of writing this article, there is no exact data yet on what cybersecurity incidents have occurred or how much damage they have caused. Nevertheless, it is certain that in the pandemic chaos, many corporates made mistakes during their digital adaptation processes. To a considerable extent, these mistakes are due to humans. Even though there are outstanding technological solutions or regulations at a company, if this riskfactor is not appropriately managed, then the other two are worthless. Despite the need, there is no widespread human risk anylisys method in cybersecurity, because it is difficult to measure, and covered in obscurity. In this paper, the authors propose a fuzzy model to organizations whereby they can measure this risk if they have sufficient information about the workforce. The model will be easier understood if presented through a specific threat, the digital leakage of classified information from a critical infrastructure.",1949-0488,978-1-7281-7352-8,10.1109/SISY50555.2020.9217053,,https://ieeexplore.ieee.org/stamp/stamp.jsp?arnumber=9217053,cybersecurity;human factor;fuzzy model;classified information;information leakage;critical infrastructure,Computer security;Organizations;Human factors;Standards organizations;Uncertainty;Fuzzy logic;Risk management,critical infrastructures;DP industry;fuzzy set theory;human factors;organisational aspects;pattern classification;risk analysis;security of data,critical infrastructure;cybersecurity incidents;cybersecurity world;digital transformation;classified information leakage;human factor;cybersecurity risk analysis;digital leakage;fuzzy model;digital adaptation processes,,,,18,,8-Oct-20,,,IEEE,IEEE Conferences,no,no,This paper goes through the challenges that situation poses for the cyber security world and how the humans make mistakes which is not related to our inclusion criteria. The authors of this paper suggest a fuzzy model for organization to quantify this risk if they have enough knowledge about the workforce which is not related to any of our inclusion criteria.,no,
Preface on the 5th International Workshop on Traffic Measurements for Cybersecurity,M. KorczyĹ„ski; W. Mazurczyk; P. Casas,"Grenoble Alpes University,Grenoble,France; Warsaw University of Technology,Warsaw,Poland; Austrian Institute of Technology,Vienna,Austria",2020 IEEE European Symposium on Security and Privacy Workshops (EuroS&PW),22-Oct-20,2020,,,521,521,"The International Workshop on Traffic Measurements for Cybersecurity (WTMC 2020) planned its 5th edition in Genova, Italy, on June 16, 2020. However, due to the COVID-19 pandemic, the IEEE European Symposium on Security and Privacy 2020 conference and its workshops have been first rescheduled to September 7-11, 2020, and then switched to an all-digital conference format. Thus, WTMC finally took place on September 7, 2020, as a virtual event.",,978-1-7281-8597-2,10.1109/EuroSPW51379.2020.00076,,https://ieeexplore.ieee.org/stamp/stamp.jsp?arnumber=9229742,traffic measurements;cybersecurity;workshop,,,,,,,0,,22-Oct-20,,,IEEE,IEEE Conferences,yes,no,This paper deals with the cyber security workshops and research results in field of cyber security and networks which doesn’t matches with our inclusion criteria. ,no,
Management of Cybersecurity Incidents in Virtual Lab,J. UramovĂˇ; P. SegeÄŤ; J. PapĂˇn; I. BrĂ­dovĂˇ,"Faculty of Management Science and Informatics, University of Zilina,Zilina,010 26; Faculty of Management Science and Informatics, University of Zilina,Zilina,010 26; Faculty of Management Science and Informatics, University of Zilina,Zilina,010 26; Faculty of Management Science and Informatics, University of Zilina,Zilina,010 26",2020 18th International Conference on Emerging eLearning Technologies and Applications (ICETA),22-Mar-21,2020,,,724,729,"Article provides guidance on how to implement an introductory course at university during one semester for future cybersecurity analysts, built on the basis of the Cisco Certified CyberOps course. The article presents the implementation of the course Management of cybersecurity incidents in the virtual laboratory in GNS3. Topologies in virtual laboratories are actual in today's covid-19 pandemic times, because many universities are forced to use live online or hybrid teaching.",,978-1-6654-2226-0,10.1109/ICETA51985.2020.9379159,,https://ieeexplore.ieee.org/stamp/stamp.jsp?arnumber=9379159,Intrusion Detection;Cybersecurity;Cybersecuirty Operate;Cyberattacks;Ethincal Hacking;GNS3;Virtual Laboratory;Emulation,Protocols;Electronic learning;Pandemics;Tools;Topology;Computer security;Monitoring,,,,,,23,,22-Mar-21,,,IEEE,IEEE Conferences,yes,no,The article provided giudance in terms of academic aspect of cyber security. It demonstrated how to design and plan a cyber security course aim to introduce a cyber security analyst.,no,
Organizational Security Policy and Management during Covid-19,A. A. Shammari; R. R. Maiti; B. Hammer,"Kentucky State University, College of Agriculture, Communities, and Sciences, School of Science, Techology, Engineering, and Mathematics,Department of Computer Science,Frankfort,KY,U.S.A; Kentucky State University, College of Agriculture, Communities, and Sciences, School of Science, Techology, Engineering, and Mathematics,Department of Computer Science,Frankfort,KY,U.S.A; Hammer IT Consulting, Inc.,Naples,FL,U.S.A",SoutheastCon 2021,21-Apr-21,2021,,,1,4,Protection of an organization's assets and information technology infrastructure is always crucial to any business. Securing and protecting businesses from cybersecurity threats became very challenging during the Covid-19 Pandemic. Organizations suddenly shifted towards remote work to maintain continuity and protecting against new cyber threats became a big concern for most business owners. This research looks into the following areas (i) outlining the shift from In-person to online work risks (ii) determine the cyber-attack type based on the list of 10 most prominent cybersecurity threats during the Covid-19 Pandemic (iii) and design a security policy to securing business continuity.,1558-058X,978-1-6654-0379-5,10.1109/SoutheastCon45413.2021.9401907,,https://ieeexplore.ieee.org/stamp/stamp.jsp?arnumber=9401907,information technology;policy;Covid-19;cybersecurity;cyber-attack,COVID-19;Pandemics;Organizations;Business continuity;Computer security;Information technology,,,,,,14,,21-Apr-21,,,IEEE,IEEE Conferences,yes,yes,,yes,"The paper concerned about attacks resulted from shifting from in person to online work environment. Categories of attacks were three main types: malware, DDOS and Phishing. A short survey was made via MCQs or university students and staff to help to design guidelines to deal with such attacks. Also, the paper concluded that cyber attacks has grown exponentially during covid-19 pandemic. Testing and monitoring the guidelines will be the researchers next steps."
Predicting and Preventing Cyber Attacks During COVID-19 Time Using Data Analysis and Proposed Secure IoT layered Model,L. Tawalbeh; F. Muheidat; M. Tawalbeh; M. Quwaider; G. Saldamli,"Texas A&M University,IEEE SM,Department of Computing and Cybersecurity,San Antonio,USA; California State University, San Bernardino,IEEE SM, School of Computer Science and Engineering,San Bernardino,USA; Jordan University of Science and Technology,Computer Engineering Department,Jordan; Jordan University of Science and Technology,Computer Engineering Department,Jordan; San Jose State University,Computer Engineering Department,San Jose,USA","2020 Fourth International Conference on Multimedia Computing, Networking and Applications (MCNA)",23-Nov-20,2020,,,113,118,"The global spread of the COVID-19 pandemic and its unprecedented impact not only on health and economy but almost on all aspects of our lives, including how we work, meet, communicate, collaborate, etc. Unfortunately, these changes and the transition to the virtual space in such a short time without proper planning created opportunities for bad actors in cyberspace. In the last few months, we have witnessed new treads and waves of cyber-attacks targeting businesses, governments, health, and other critical services. Attackers try to take advantage of people's fear of the virus, vulnerabilities associated with data collection sensors and IoT devices, and eagerness to look for solutions or protections. In this study, we will survey the nature of cyberattacks related to the COVID-19 outbreak. Them, we will analyze related data to phishing attacks using Neural Networks. This analysis is covering different technical and socio-economical aspects. We will also evaluate states' countermeasures in response to such attacks. We propose a new IoT model. We define three layers; End User, Device or Sensors, and Cloud. We can combine the proposed model with the security and privacy policies to countermeasure the cybersecurity threats facing each layer.",,978-1-7281-8373-2,10.1109/MCNA50957.2020.9264301,,https://ieeexplore.ieee.org/stamp/stamp.jsp?arnumber=9264301,IoT model;Cloud;Security attacks;Data Analysis;ANN;COVID-19,COVID-19;Security;Organizations;Phishing;Pandemics;Computer crime;Electronic mail,computer crime;computer network security;data analysis;data privacy;Internet of Things,COVID-19 time;data analysis;global spread;COVID-19 pandemic;economy;virtual space;cyberspace;critical services;data collection sensors;IoT devices;protections;COVID-19 outbreak;phishing attacks;socio-economical aspects;IoT model;security;privacy policies;secure IoT layered model;cyber-attacks,,,,24,,23-Nov-20,,,IEEE,IEEE Conferences,Yes,yes,,yes,"This paper focuses on the analysis aspect of cube security. The paper demonstrated a model to analysis covid-19 cyber-attacks including phishing and IOT attacks. Their model will be made of three layers: End User, Device or Sensors, and Cloud. The goal is to predict and countermeasure threats facing each layer. The paper concluded that healthcare industry was the most effected sector of attacks as it is holding valuable information about trend event and patients. Phishing emails were mainly used to deceive employees who are hardly comply with security measures. "
Studying the Similarity of COVID-19 Sounds based on Correlation Analysis of MFCC,M. B. Alsabek; I. Shahin; A. Hassan,"University of Sharjah,Department of Electrical Engineering,Sharjah,United Arab Emirates; University of Sharjah,Department of Electrical Engineering,Sharjah,United Arab Emirates; University of Sharjah,Department of Electrical Engineering,Sharjah,United Arab Emirates","2020 International Conference on Communications, Computing, Cybersecurity, and Informatics (CCCI)",18-Nov-20,2020,,,1,5,"Recently there has been a formidable work which has been put up from the people who are working in the frontlines such as hospitals, clinics, and labs alongside researchers and scientists who are also putting tremendous efforts in the fight against COVID-19 pandemic. Due to the preposterous spread of the virus, the integration of the artificial intelligence has taken a considerable part in the health sector, by implementing the fundamentals of Automatic Speech Recognition (ASR) and deep learning algorithms. In this paper, we illustrate the importance of speech signal processing in the extraction of the Mel-Frequency Cepstral Coefficients (MFCCs) of the COVID-19 and non-COVID-19 samples and find their relationship using Pearson's correlation coefficients. Our results show high similarity in MFCCs between different COVID-19 cough and breathing sounds, while MFCC of voice is more robust between COVID-19 and non-COVID-19 samples. Moreover, our results are preliminary, and there is a possibility to exclude the voices of COVID-19 patients from further processing in diagnosing the disease.",,978-1-7281-7315-3,10.1109/CCCI49893.2020.9256700,,https://ieeexplore.ieee.org/stamp/stamp.jsp?arnumber=9256700,Breathing;correlation;coughing;COVID-19;Mel frequency cepstral coefficients;speech analysis,COVID-19;Feature extraction;Mel frequency cepstral coefficient;Correlation;Correlation coefficient;Speech processing;Artificial intelligence,acoustic signal processing;cepstral analysis;diseases;feature extraction;learning (artificial intelligence);medical signal processing;patient diagnosis;pneumodynamics;signal classification;speech processing;speech recognition,correlation analysis;MFCC;formidable work;COVID-19 pandemic;deep learning algorithms;speech signal processing;Mel-Frequency Cepstral Coefficients;nonCOVID-19 samples;Pearson's correlation coefficients;COVID-19 cough;COVID-19 patients,,,,20,,18-Nov-20,,,IEEE,IEEE Conferences,Yes,no,this paper concerned about implemtning Automatic Speech Recognition (ASR) and deep learning algorithms in helathcare industiy to hep staff fighting the virus which is out of our inclusion criteria scope.,no,
Proposal and Validation of a Standard Protection Profile for Homologation of Commercial Videoconferencing Equipment,A. C. B. Florentino; S. C. M. Barbalho; R. C. S. Machado,"Department of Production Engineering, Post-Graduation Program in Mechatronic Systems, University of Brasilia, Brasilia, Brazil; Department of Production Engineering, Post-Graduation Program in Mechatronic Systems, University of Brasilia, Brasilia, Brazil; Department of Information Systems, Federal Fluminense University, NiterĂłi, Brazil",IEEE Access,10-Feb-21,2021,9,,24288,24304,"In the present work, we propose and validate a Common Criteria Standard Protection Profile (sPP) for videoconferencing equipment. The research presents the definition and analysis of the homologation system used to validate the standard protection profile, focusing on its application focused in a large Brazilian financial company. We address the main points to consider in the acquisition and current use of this product: reasonable information security assumptions, technical standards, recommendations, and international best cybersecurity practices. As a result, we have developed a Standard Protection Profile identifying the information security risks involved and the minimum parameters required in those systems acquired and used for Government environments. This paper also presents all tests performed to validate the proposed sPP. As the application is critical, involving sensitive data, our results can also foster less risky conditions in the myriad situations caused by the COVID pandemic.",2169-3536,,10.1109/ACCESS.2021.3056491,,https://ieeexplore.ieee.org/stamp/stamp.jsp?arnumber=9344589,Banking;common criteria;cyber defense;homologation;mechatronic product;security;videoconferencing,Standards;Information security;Computer security;Teleconferencing;Companies;Mechatronics;Information systems,epidemics;security of data;teleconferencing,technical standards;commercial videoconferencing equipment;common criteria standard protection profile;homologation system;Brazilian financial company;information security assumptions;cybersecurity practices;government environments;COVID pandemic,,,,81,CCBY,2-Feb-21,,,IEEE,IEEE Journals,no,no,the researchers in this paper fouced on implementing a Common Criteria Standard Protection Profile (sPP) to be used in videoconferencing technology which is out of our inclusion criteria scoope.,no,
HIP-Based Security in IoT Networks: A comparison,P. Kanuch; D. Macko; L. Hudec,"Slovak University of Technology,Faculty of Informatics and Information Technologies,Bratislava,Slovakia; Slovak University of Technology,Faculty of Informatics and Information Technologies,Bratislava,Slovakia; Slovak University of Technology,Faculty of Informatics and Information Technologies,Bratislava,Slovakia",2020 18th International Conference on Emerging eLearning Technologies and Applications (ICETA),22-Mar-21,2020,,,283,289,"A huge amount of cybersecurity attacks discovered in recent years, moreover in the last one associated with the pandemic situation, where intruders are trying to exploit the hospitals and research centers. It can be dangerous as nowadays a lot of IoT devices are connected in that area of life. It is one of the several points of our motivation to secure IoT devices or data in Healthcare. In our article, we discussed several approaches dealing with the classification of security attacks. In the next part, we analyzed and compared HIP-based security protocols also used in IoT networks. We also ran experiments to show that it is crucial to bring energy-efficient lightweight, optimized protocol for using in IoT networks within sufficient security strength.",,978-1-6654-2226-0,10.1109/ICETA51985.2020.9379228,,https://ieeexplore.ieee.org/stamp/stamp.jsp?arnumber=9379228,,Protocols;Power demand;Pandemics;Public key;Object recognition;Computer security;Optimization,,,,,,21,,22-Mar-21,,,IEEE,IEEE Conferences,yes,yes,,yes,"The paper concerned about IOT based attacks especially in healthcare industry facilities including hospitals and research centers. The found three main attacks: physical attack of devices, DOS attack and network attack. The suggested using 2048-bit public keys size even it will consume more than normal power."
Autonomous Driving: Practical Challenges & Opportunities,,,2020 IEEE 6th International Conference on Collaboration and Internet Computing (CIC),20-Jan-21,2020,,,xviii,xxiii,"One of the prominent industry trends at this point is development of self-driving technology and vehicles. Autonomous vehicles are increasingly touching our lives and society. With the current pandemic, their value in driverless transportation, contactless delivery and better safety increased manyfold. There are several key technology trends that are acting as critical drivers of enabling and realizing self-driving cars: AI/ML, Distributed and Federated Machine Learning, Perception, Adversarial Machine Learning, Edge and Cloud computing, Hardware technology for sensors, RADARs and LIDARs, Cybersecurity, Safety, AI Ethics and regulatory requirements.",,978-1-7281-4146-6,10.1109/CIC50333.2020.00010,,https://ieeexplore.ieee.org/stamp/stamp.jsp?arnumber=9319037,,,,,,,,,,20-Jan-21,,,IEEE,IEEE Conferences,no,no,"the paper talked about self-driving technology and its related sub-technologies, the higher usage and demand of it during pandemic. This is out of our research scope.",no,
IT Risk and Resilienceâ€”Cybersecurity Response to COVID-19,T. Weil; S. Murugesan,SecurityFeeds LLC; Western Sydney University,IT Professional,22-May-20,2020,22,3,4,10,"The rapid and worldwide spread of the coronavirus and its illness known as COVID-19 has made huge impact on almost everything has taken us all by surprise. We all are now experiencing a major unprecedented and unexpected global public health crisis. This pandemic has also triggered huge social upheavals, disrupted almost every industry, and impacted the life and work of everyone in almost every country. Businesses and educational institutions are closed, many employees are forced to work from their homes, supply chains have been disturbed, people are being required to self-isolate, and most travel, in-person meetings, and conventions have been banned. These disruptions could continue for months, and the resulting economic, business, and social impact will last for years.",1941-045X,,10.1109/MITP.2020.2988330,,https://ieeexplore.ieee.org/stamp/stamp.jsp?arnumber=9098180,,,,,,2,,8,IEEE,22-May-20,,,IEEE,IEEE Magazines,yes,yes,,yes,the article demonstrated a general comparison of industires and what has the pandemic impact on them. How their work enviroments changed technically. The article is not technical but it got genral insights of cubersecurity in general.
